%YAML 1.1
%TAG !u! tag:unity3d.com,2011:
--- !u!1045 &1
EditorBuildSettings:
  m_ObjectHideFlags: 0
  serializedVersion: 2
  m_Scenes:
  - enabled: 1
    path: Assets/Scenes/MainMenu.unity
    guid: 4bc71387d240e284bbd3fc0f51beefac
  - enabled: 1
    path: Assets/Scenes/Level1.unity
    guid: 4876bfb4277b3374f883c916114384d1
